{
	"Identificador": 1,
	"UrlBase": "https://www.shoptime.com.br/mapa-do-site/categoria",
    "NextSelector": ".sitemap-block > .sitemap-list > .sitemap-item",
    "TextSelector": "a::text",
	"CategoriasFilhas":{
        "Identificador": 2,
        "UrlBase": null,
        "NextSelector": ".sitemap-list > .sitemap-item",
        "TextSelector": "a::text",
        "UrlSelector": "a::attr(href)",
        "Dominio": "https://www.shoptime.com.br"
    }
}