{
    "settings": 
        "DEFAULT_REQUEST_HEADERS={\"Accept\": \"text/html,application/xhtml+xml,application/xml;q=0.9,image/webp,image/apng,*/*;q=0.8,application/signed-exchange;v=b3\",\"Accept-Language\": \"en-US,en;q=0.9\",\"User-Agent\": \"Mozilla/5.0 (Windows NT 10.0; WOW64) AppleWebKit/537.36 (KHTML, like Gecko) Chrome/74.0.3729.172 Safari/537.36 Vivaldi/2.5.1525.46\"}",
    "categories": {
        "Identificador": 1,
        "UrlBase": "https://www.dafiti.com.br/mapa-do-site/",
        "NextSelector": ".wrapper-sitemap",
        "TextSelector": "h2 > a::text",
        "CategoriasFilhas":{
            "Identificador": 2,
            "NextSelector": "ul:nth-child(-n+27) > li:not(:first-child)",
            "TextSelector": "a::text",
            "UrlSelector": "a::attr(href)",
            "Dominio": ""
        }
    },
    "list": {
        "Produtos": {
            "Identificador": 1,
            "NextSelector": ".content-products-list > .main-list > .product-box",
            "UrlSelector": "a::attr(href)",
            "Dominio": ""
        },
        "Paginacao": {
            "Identificador": 1,
            "NextSelector": ".pagination-list > .next",
            "UrlSelector": "a::attr(href)",
            "Dominio": "https://www.dafiti.com.br"
        }
    },
    "products":{
        "Campos": [
            {	
                "Identificador": 1,
                "NomeCampo": "codigoProduto",
                "NextSelector": "[itemprop=\"sku\"]",
                "TextSelector": "[itemprop=\"sku\"]::text"
            },
            {
                "Identificador": 2,
                "NomeCampo": "nome",
                "NextSelector": ".product-name",
                "TextSelector": ".product-name::text"
            },
            {	
                "Identificador": 3,
                "NomeCampo": "descricao",
                "NextSelector": ".product-information-description",
                "TextSelector": ".product-information-description ::text"
            },
            {
                "Identificador": 4,
                "NomeCampo": "valor",
                "NextSelector": ".catalog-detail-price-value",
                "TextSelector": ".catalog-detail-price-value::attr(content)"
            },
            {
                "Identificador": 5,
                "NomeCampo": "formaPagamento",
                "NextSelector": ".catalog-detail-price-installment-price",
                "TextSelector": ".catalog-detail-price-installment-price::attr(content)",
                "Tratamentos": [
                    {"tipo": "replace", "old": ".", "new": ""},
                    {"tipo": "replace", "old": ",", "new": "."},
                    {"tipo": "replace", "old": "R$", "new": ""}
                ]
            },
            {
                "Identificador": 5,
                "NomeCampo": "nomeCategoria",
                "EhColecao": true,
                "NextSelector": ".breadcrumb2 > li.breadcrumb2-item",
                "TextSelector": "span[itemprop=\"title\"] ::text"
            }
        ],
        "Caracteristicas":{
            "Identificador": 1,
            "NextSelector": ".product-informations > tbody > tr",
            "Campos":{
                "Nome": "td:nth-child(1) ::text",
                "Valor": "td:nth-child(2) ::text"
            }
            
        },
        "Imagens":{
            "Identificador": 1,
            "NextSelector": ".carousel-items > li.carousel-item",
            "UrlSelector": "a::attr(href)",
            "Dominio": ""
        }
    }        
}