{
    "identificador": 1,
    "nome": "OLX",
    "settings": [
        "DEFAULT_REQUEST_HEADERS={\"Accept\": \"text/html,application/xhtml+xml,application/xml;q=0.9,image/webp,image/apng,*/*;q=0.8,application/signed-exchange;v=b3\",\"Accept-Language\": \"en-US,en;q=0.9\",\"User-Agent\": \"Mozilla/5.0 (Windows NT 10.0; WOW64) AppleWebKit/537.36 (KHTML, like Gecko) Chrome/74.0.3729.172 Safari/537.36 Vivaldi/2.5.1525.46\"}"
    ],
    "categories": {
        "Identificador": 1,
        "UrlBase": "https://www.olx.com.br/brasil",
        "NextSelector": ".search-category-nav > .list > .item",
        "TextSelector": "a::text",
        "UrlSelector": "a.link:not([title=\"Vagas de emprego\"]):not([title=\"Serviços\"])::attr(href)",
        "Dominio": ""
    },
    "list": {
        "Produtos": {
            "Identificador": 1,
            "NextSelector": "#main-ad-list",
            "Filhos": {
                "Identificador": 1,
                "NextSelector": ".item",
                "UrlSelector": "a::attr(href)",
                "Dominio": ""
            }
        },
        "Paginacao": {
            "Identificador": 1,
            "NextSelector": ".module_pagination > .list > .item.next",
            "UrlSelector": "a::attr(href)",
            "Dominio": ""
        }
    },
    "products":[
        {
            "Nome": "Default",
            "Campos": [
                {	
                    "Identificador": 1,
                    "NomeCampo": "codigoProduto",
                    "NextSelector": ".OLXad-id > text",
                    "TextSelector": ".description"
                },
                {
                    "Identificador": 2,
                    "NomeCampo": "nome",
                    "NextSelector": "#ad_title",
                    "TextSelector": "#ad_title ::text"
                },
                {	
                    "Identificador": 3,
                    "NomeCampo": "descricao",
                    "NextSelector": ".OLXad-description",
                    "TextSelector": ".OLXad-description ::text"
                },
                {
                    "Identificador": 4,
                    "NomeCampo": "valor",
                    "NextSelector": ".actual-price",
                    "TextSelector": ".actual-price ::text",
                    "Tratamentos": [
                        {"tipo": "replace", "old": "R$ ", "new": ""},
                        {"tipo": "replace", "old": ".", "new": ""},
                        {"tipo": "replace", "old": ",", "new": "."}
                    ]
                },
                {
                    "Identificador": 5,
                    "NomeCampo": "nomeCategoria",
                    "EhColecao": true,
                    "NextSelector": ".pbreadcrumb-list > .item",
                    "TextSelector": "a ::text",
                    "Tratamentos": [
                        {"tipo": "replace", "old": "\\r", "new": ""},
                        {"tipo": "replace", "old": "\\n", "new": ""},
                        {"tipo": "replace", "old": "\\t", "new": ""},
                        {"tipo": "replace", "old": "\r", "new": ""},
                        {"tipo": "replace", "old": "\n", "new": ""},
                        {"tipo": "replace", "old": "\t", "new": ""}
                    ]
                }
            ],
            "Caracteristicas":{
                "Identificador": 1,
                "NextSelector": ".atributes > .list",
                "Filhos": {
                    "NextSelector": ".item",
                    "Campos":{
                        "Nome": ".term ::text",
                        "Valor": ".description ::text"
                    }
                }
            },
            "Imagens":{
                "Identificador": 1,
                "NextSelector": ".photos > .scrollable.horizontal > .list",
                "Filhos": {
                    "Identificador": 1,
                    "NextSelector": ".item > .box-image",
                    "UrlSelector": "a::attr(href)",
                    "Dominio": ""
                }
            }
        }
    ]    
}