{
	"Campos": [
		{	
			"Identificador": 1,
			"NomeCampo": "CodigoProduto",
			"Selector": "section[class^=\"product-page\"] > div[class^=\"GridUI\"] > div[class^=\"GridUI\"]  > div[class^=\"ColUI\"] > section[class^=\"ViewSection\"] > div[class^=\"GridUI\"] > div[class^=\"ColUI\"] > div[class^=\"ViewUI\"] > span[class^=\"TextUI\"]::text"
		},
		{
			"Identificador": 2,
			"NomeCampo": "Nome",
			"Selector": "[class*=product-title] ::text"
		},
		{	
			"Identificador": 3,
			"NomeCampo": "Descricao",
			"Selector": ".info-description-frame-inside ::text"
		},
		{
			"Identificador": 4,
			"NomeCampo": "Valor",
			"Selector": ".sales-price::text"
		},
		{
			"Identificador": 5,
			"NomeCampo": "FormaPagamento",
			"Selector": ".installment-wrapper > .payment-option::text"
		}
	],
	"Caracteristicas":{
		"Identificador": 1,
		"NextSelector": "tbody > tr",
		"Campos":{
			"Nome": "td:nth-child(1) ::text",
			"Valor": "td:nth-child(2) ::text"
		}
		
	},
	"Imagens":{
		"Identificador": 1,
        "NextSelector": ".image-gallery-slides > .image-gallery-slide",
        "Filhos": {
            "Identificador": 1,
            "NextSelector": ".image-gallery-image",
            "UrlSelector": "img::attr(src)",
            "Dominio": "https://www.shoptime.com.br"
        }
    }
}
