{
  "identificador": 1,
  "nome": "Shoptime",
  "settings": [
    "DEFAULT_REQUEST_HEADERS={\"Accept\": \"text/html,application/xhtml+xml,application/xml;q=0.9,image/webp,image/apng,*/*;q=0.8,application/signed-exchange;v=b3\",\"Accept-Language\": \"en-US,en;q=0.9\",\"User-Agent\": \"Mozilla/5.0 (Windows NT 10.0; WOW64) AppleWebKit/537.36 (KHTML, like Gecko) Chrome/74.0.3729.172 Safari/537.36 Vivaldi/2.5.1525.46\"}"
  ],
  "categorias": {
    "identificador": 1,
    "urlBase": "https://www.shoptime.com.br/mapa-do-site/categoria",
    "textSelector": "a::text",
    "nextSelector": ".sitemap-block > .sitemap-list > .sitemap-item",
    "filhos": [
      {
        "identificador": 2,
        "urlSelector": "a::attr(href)",
        "textSelector": "a::text",
        "nextSelector": ".sitemap-list > .sitemap-item",
        "dominio": "https://www.shoptime.com.br"
      }
    ]
  },
  "listagemEPaginacao": {
    "splash": {
      "wait": 4
    },
    "listagem": {
      "identificador": 1,
      "nextSelector": ".product-grid",
      "filhos": [
        {
          "identificador": 2,
          "nextSelector": ".product-grid-item",
          "urlSelector": "a::attr(href)",
          "dominio": "https://www.shoptime.com.br"
        }
      ]
    },
    "paginacao": {
      "identificador": 1,
      "nextSelector": ".pagination-product-grid > :last-child",
      "urlSelector": "a::attr(href)",
      "dominio": "https://www.shoptime.com.br"
    }
  },
  "dadosProduto": [
    {
      "nome": "Default",
      "campos": [
        {
          "identificador": 1,
          "nome": "CodigoProduto",
          "nextSelector": "section[class^=\"product-page\"] > div[class^=\"GridUI\"] > div[class^=\"GridUI\"]  > div[class^=\"ColUI\"] > section[class^=\"ViewSection\"] > div[class^=\"GridUI\"] > div[class^=\"ColUI\"] > div[class^=\"ViewUI\"]",
          "textSelector": "span[class^=\"TextUI\"]::text",
          "ehColecao": false,
          "filhos": [],
          "tratamentos": []
        },
        {
          "identificador": 2,
          "nome": "Nome",
          "nextSelector": "[class*=product-title]",
          "textSelector": "[class*=product-title] ::text",
          "ehColecao": false,
          "filhos": [],
          "tratamentos": []
        },
        {
          "identificador": 3,
          "nome": "Descricao",
          "nextSelector": ".info-description-frame-inside",
          "textSelector": ".info-description-frame-inside ::text",
          "ehColecao": false,
          "filhos": [],
          "tratamentos": []
        },
        {
          "identificador": 4,
          "nome": "Valor",
          "nextSelector": ".sales-price",
          "textSelector": ".sales-price::text",
          "ehColecao": false,
          "filhos": [],
          "tratamentos": []
        },
        {
          "identificador": 5,
          "nome": "FormaPagamento",
          "nextSelector": ".installment-wrapper",
          "textSelector": ".payment-option::text",
          "ehColecao": false,
          "filhos": [],
          "tratamentos": []
        }
      ],
      "caracteristicas": {
        "identificador": 1,
        "nextSelector": "tbody > tr",
        "nome": "td:nth-child(1) ::text",
        "valor": "td:nth-child(2) ::text"
      },
      "imagens": {
        "identificador": 1,
        "nextSelector": ".image-gallery-slides > .image-gallery-slide",
        "filhos": [
          {
            "identificador": 2,
            "nextSelector": ".image-gallery-image",
            "urlSelector": "img::attr(src)",
            "dominio": "https://www.shoptime.com.br"
          }
        ],
        "tratamentos": []
      }
    }
  ]
}