{
    "settings": 
        "DEFAULT_REQUEST_HEADERS={\"Accept\": \"text/html,application/xhtml+xml,application/xml;q=0.9,image/webp,image/apng,*/*;q=0.8,application/signed-exchange;v=b3\",\"Accept-Language\": \"en-US,en;q=0.9\",\"User-Agent\": \"Mozilla/5.0 (Windows NT 10.0; WOW64) AppleWebKit/537.36 (KHTML, like Gecko) Chrome/74.0.3729.172 Safari/537.36 Vivaldi/2.5.1525.46\"}",
    "categories": {
        "Identificador": 1,
        "UrlBase": "https://www.submarino.com.br/mapa-do-site/categoria",
        "NextSelector": ".sitemap-block > .sitemap-list > .sitemap-item",
        "TextSelector": "a::text",
        "CategoriasFilhas":{
            "Identificador": 2,
            "UrlBase": null,
            "NextSelector": ".sitemap-list > .sitemap-item",
            "TextSelector": "a::text",
            "UrlSelector": "a::attr(href)",
            "Dominio": "https://www.submarino.com.br"
        }
    },
    "list": {
        "Produtos": {
            "Identificador": 1,
            "NextSelector": "[data-tracker=\"productgrid-main\"]",
            "Filhos": {
                "Identificador": 1,
                "NextSelector": ".product-grid-item",
                "UrlSelector": "a::attr(href)",
                "Dominio": "https://www.submarino.com.br"
            }
        },
        "Paginacao": {
            "Identificador": 1,
            "NextSelector": ".pagination-product-grid > :last-child",
            "UrlSelector": "a::attr(href)",
            "Dominio": "https://www.shoptime.com.br"
        }
    },
    "products":{
        "Campos": [
            {	
                "Identificador": 1,
                "NomeCampo": "CodigoProduto",
                "NextSelector": "section[class^=\"product-page\"] > div[class^=\"GridUI\"] > div[class^=\"GridUI\"]  > div[class^=\"ColUI\"] > section[class^=\"ViewSection\"] > div[class^=\"GridUI\"] > div[class^=\"ColUI\"] > div[class^=\"ViewUI\"]",
                "TextSelector": "span[class^=\"TextUI\"]::text",
                "Tratamentos": [
                    {"tipo": "replace", "old": "(Cód.", "new": ""},
                    {"tipo": "replace", "old": ")", "new": ""}
                ]
            },
            {
                "Identificador": 2,
                "NomeCampo": "Nome",
                "NextSelector": "[class*=product-title]",
                "TextSelector": "[class*=product-title] ::text"
            },
            {	
                "Identificador": 3,
                "NomeCampo": "Descricao",
                "NextSelector": ".info-description-frame-inside",
                "TextSelector": ".info-description-frame-inside ::text"
            },
            {
                "Identificador": 4,
                "NomeCampo": "Valor",
                "NextSelector": ".sales-price",
                "TextSelector": ".sales-price::text",
                "Tratamentos": [
                    {"tipo": "replace", "old": "R$ ", "new": ""},
                    {"tipo": "replace", "old": ".", "new": ""},
                    {"tipo": "replace", "old": ",", "new": "."}
                ]
            },
            {
                "Identificador": 5,
                "NomeCampo": "FormaPagamento",
                "NextSelector": ".installment-wrapper",
                "TextSelector": ".payment-option::text",
                "Tratamentos": [
                    {"tipo": "replace", "old": "\\r", "new": ""},
                    {"tipo": "replace", "old": "\\n", "new": ""},
                    {"tipo": "replace", "old": "\\t", "new": ""},
                    {"tipo": "replace", "old": "\r", "new": ""},
                    {"tipo": "replace", "old": "\n", "new": ""},
                    {"tipo": "replace", "old": "\t", "new": ""}
                ]
            }
        ],
        "Caracteristicas":{
            "Identificador": 1,
            "NextSelector": "#info-section",
            "Filhos": {
                "NextSelector": "tbody > tr",
                "Campos":{
                    "Nome": "td:nth-child(1) ::text",
                    "Valor": "td:nth-child(2) ::text"
                }
            }
        },
        "Imagens":{
            "Identificador": 1,
            "NextSelector": ".image-gallery-slides > .image-gallery-slide",
            "Filhos": {
                "Identificador": 1,
                "NextSelector": ".image-gallery-image",
                "UrlSelector": "img::attr(src)",
                "Dominio": ""
            }
        }
    }        
}